"PM2.5","PM10","O3","NO2","SO2","CO","AQI","City","Date"
89,59,25,32,8,6,89,"hefei","2015-06-04"
102,31,37,22,3,8,102,"fuzhou","2015-06-04"
156,153,17,57,38,9,156,"lanzhou","2015-06-04"
63,33,8,12,4,5,63,"guangzhou","2015-06-04"
70,30,28,17,10,8,70,"guiyang","2015-06-04"
55,25,5,4,2,3,55,"haikou","2015-06-04"
172,119,22,37,31,8,172,"shijiazhuang","2015-06-04"
147,69,52,22,3,3,147,"haerbin","2015-06-04"
0,0,0,0,0,0,0,"zhengzhou","2015-06-04"
97,53,21,22,9,7,97,"wuhan","2015-06-04"
97,44,10,3,5,3,97,"changsha","2015-06-04"
63,50,35,13,6,5,63,"nanjing","2015-06-04"
127,60,21,16,12,0,127,"nanchang","2015-06-04"
46,41,32,6,3,4,46,"changchun","2015-06-04"
87,40,33,24,6,5,87,"shenyang","2015-06-04"
0,0,0,0,0,0,0,"xining","2015-06-04"
78,75,24,14,13,13,78,"xian","2015-06-04"
114,87,26,16,17,7,114,"jinan","2015-06-04"
177,144,1,24,55,21,177,"taiyuan","2015-06-04"
87,41,23,29,5,6,87,"chengdu","2015-06-04"
0,0,0,0,0,0,0,"kunming","2015-06-04"
89,41,50,12,5,5,89,"hangzhou","2015-06-04"
55,8,19,6,4,7,55,"nanning","2015-06-04"
65,49,8,22,3,5,65,"huhehaote","2015-06-04"
114,105,19,5,4,5,114,"yinchuan","2015-06-04"
42,21,31,5,6,5,42,"lhasa","2015-06-04"
70,96,8,18,3,3,96,"wulumuqi","2015-06-04"
117,81,28,23,4,7,117,"beijing","2015-06-04"
104,60,1,26,7,11,104,"chongqing","2015-06-04"
47,21,4,40,4,4,47,"hongkong","2015-06-04"
38,20,23,6,3,10,38,"zhuhai","2015-06-04"
159,61,51,20,9,6,159,"shanghai","2015-06-04"
154,64,27,12,16,19,154,"tianjin","2015-06-04"
137,57,22,15,10,4,137,"xiamen","2015-06-04"
57,36,31,15,9,9,57,"shenzhen","2015-06-04"
57,29,58,11,7,6,58,"dalian","2015-06-04"
107,82,36,22,16,8,107,"qingdao","2015-06-04"
134,60,60,17,15,8,134,"ningbo","2015-06-04"
