"PM2.5","PM10","O3","NO2","SO2","CO","AQI","City","Date"
152,80,5,24,8,11,152,"hefei","2015-05-30"
63,59,36,16,2,7,63,"fuzhou","2015-05-30"
122,121,4,37,13,6,122,"lanzhou","2015-05-30"
151,45,6,23,6,12,151,"guangzhou","2015-05-30"
132,56,22,28,8,8,132,"guiyang","2015-05-30"
21,22,10,7,1,11,22,"haikou","2015-05-30"
99,38,40,24,12,3,99,"shijiazhuang","2015-05-30"
46,38,25,12,3,3,46,"haerbin","2015-05-30"
185,117,33,20,9,12,185,"zhengzhou","2015-05-30"
175,100,1,0,0,11,175,"wuhan","2015-05-30"
163,65,2,5,7,2,163,"changsha","2015-05-30"
107,50,1,20,7,6,107,"nanjing","2015-05-30"
114,55,38,21,43,10,114,"nanchang","2015-05-30"
42,48,17,30,5,6,48,"changchun","2015-05-30"
78,48,21,20,24,6,78,"shenyang","2015-05-30"
59,34,39,10,7,11,59,"xining","2015-05-30"
151,53,11,10,11,12,151,"xian","2015-05-30"
187,116,73,10,5,8,187,"jinan","2015-05-30"
95,55,1,32,4,17,95,"taiyuan","2015-05-30"
129,53,31,19,9,13,129,"chengdu","2015-05-30"
82,49,32,12,6,7,82,"kunming","2015-05-30"
155,65,1,32,4,10,155,"hangzhou","2015-05-30"
68,30,17,10,4,6,68,"nanning","2015-05-30"
89,84,28,14,12,4,89,"huhehaote","2015-05-30"
152,105,12,22,17,5,152,"yinchuan","2015-05-30"
72,28,29,2,1,5,72,"lhasa","2015-05-30"
378,646,8,25,6,11,646,"wulumuqi","2015-05-30"
155,65,1,36,3,10,155,"beijing","2015-05-30"
158,93,1,44,7,13,158,"chongqing","2015-05-30"
18,14,6,23,1,6,23,"hongkong","2015-05-30"
55,57,15,14,4,10,57,"zhuhai","2015-05-30"
107,33,17,24,6,6,107,"shanghai","2015-05-30"
158,68,21,15,10,21,158,"tianjin","2015-05-30"
93,36,15,15,8,5,93,"xiamen","2015-05-30"
102,57,25,26,8,10,102,"shenzhen","2015-05-30"
59,45,38,12,4,7,59,"dalian","2015-05-30"
17,28,48,13,16,4,48,"qingdao","2015-05-30"
95,38,14,23,18,7,95,"ningbo","2015-05-30"
