"PM2.5","PM10","O3","NO2","SO2","CO","AQI","City","Date"
132,82,12,20,9,7,132,"hefei",2015-06-13
63,51,74,30,3,5,74,"fuzhou",2015-06-13
97,76,33,19,12,13,97,"lanzhou",2015-06-13
61,20,15,8,7,4,61,"guangzhou",2015-06-13
151,61,25,22,22,9,151,"guiyang",2015-06-13
30,23,17,1,1,4,30,"haikou",2015-06-13
163,57,2,22,5,7,163,"shijiazhuang",2015-06-13
50,36,32,9,3,4,50,"haerbin",2015-06-13
153,89,47,21,7,14,153,"zhengzhou",2015-06-13
82,60,11,22,13,10,82,"wuhan",2015-06-13
50,28,3,8,6,2,50,"changsha",2015-06-13
114,72,49,17,13,7,114,"nanjing",2015-06-13
74,34,15,11,14,10,74,"nanchang",2015-06-13
30,33,21,37,5,12,37,"changchun",2015-06-13
74,27,30,16,3,13,74,"shenyang",2015-06-13
117,74,16,20,7,8,117,"xining",2015-06-13
107,87,30,15,18,16,107,"xian",2015-06-13
210,156,28,37,52,16,210,"jinan",2015-06-13
114,60,15,16,12,22,114,"taiyuan",2015-06-13
154,64,23,19,11,9,154,"chengdu",2015-06-13
50,20,16,6,7,8,50,"kunming",2015-06-13
91,41,20,20,6,6,91,"hangzhou",2015-06-13
59,26,17,7,3,6,59,"nanning",2015-06-13
74,36,21,16,4,8,74,"huhehaote",2015-06-13
97,68,20,9,22,7,97,"yinchuan",2015-06-13
95,52,25,21,10,11,95,"lhasa",2015-06-13
179,144,45,13,3,6,179,"wulumuqi",2015-06-13
30,19,43,11,3,6,43,"beijing",2015-06-13
122,91,5,22,6,9,122,"chongqing",2015-06-13
38,15,5,34,2,4,38,"hongkong",2015-06-13
38,25,10,5,4,5,38,"zhuhai",2015-06-13
134,83,19,31,8,7,134,"shanghai",2015-06-13
119,35,44,11,8,15,119,"tianjin",2015-06-13
72,30,19,10,3,4,72,"xiamen",2015-06-13
55,73,33,13,7,11,73,"shenzhen",2015-06-13
72,56,58,11,7,7,72,"dalian",2015-06-13
80,90,66,24,10,11,90,"qingdao",2015-06-13
107,61,21,39,15,15,107,"ningbo",2015-06-13
