"PM2.5","PM10","O3","NO2","SO2","CO","AQI","City","Date"
152,79,54,18,14,10,152,"hefei","2015-06-03"
65,40,36,16,2,7,65,"fuzhou","2015-06-03"
151,91,8,36,15,8,151,"lanzhou","2015-06-03"
149,62,3,27,4,11,149,"guangzhou","2015-06-03"
144,60,23,16,15,9,144,"guiyang","2015-06-03"
63,31,23,1,2,5,63,"haikou","2015-06-03"
132,74,65,23,23,6,132,"shijiazhuang","2015-06-03"
59,63,38,14,5,3,63,"haerbin","2015-06-03"
186,107,40,18,10,12,186,"zhengzhou","2015-06-03"
173,98,49,33,5,11,173,"wuhan","2015-06-03"
172,80,25,4,8,4,172,"changsha","2015-06-03"
70,45,48,16,6,5,70,"nanjing","2015-06-03"
76,56,45,8,8,10,76,"nanchang","2015-06-03"
102,132,37,29,5,5,132,"changchun","2015-06-03"
95,82,42,12,7,6,95,"shenyang","2015-06-03"
142,72,45,15,29,24,142,"xining","2015-06-03"
155,87,16,19,12,13,155,"xian","2015-06-03"
129,102,40,9,7,7,129,"jinan","2015-06-03"
180,115,31,23,65,21,180,"taiyuan","2015-06-03"
97,51,65,14,6,13,97,"chengdu","2015-06-03"
80,47,34,6,7,8,80,"kunming","2015-06-03"
163,72,54,22,5,9,163,"hangzhou","2015-06-03"
57,20,26,6,4,6,57,"nanning","2015-06-03"
89,84,28,14,12,4,89,"huhehaote","2015-06-03"
152,105,12,22,17,5,152,"yinchuan","2015-06-03"
89,31,39,5,2,10,89,"lhasa","2015-06-03"
107,85,31,9,6,13,107,"wulumuqi","2015-06-03"
152,63,75,10,9,8,152,"beijing","2015-06-03"
104,49,38,9,10,12,104,"chongqing","2015-06-03"
40,22,8,40,3,4,40,"hongkong","2015-06-03"
53,44,19,14,4,10,53,"zhuhai","2015-06-03"
158,61,37,24,5,6,158,"shanghai","2015-06-03"
153,62,21,6,8,22,153,"tianjin","2015-06-03"
129,50,30,14,14,5,129,"xiamen","2015-06-03"
109,40,34,21,14,9,109,"shenzhen","2015-06-03"
97,71,61,12,4,8,97,"dalian","2015-06-03"
61,38,47,16,11,7,61,"qingdao","2015-06-03"
152,66,57,20,13,9,152,"ningbo","2015-06-03"
