"PM2.5","PM10","O3","NO2","SO2","CO","AQI","City","Date"
163,99,34,24,13,24,163,"hefei","2015-05-24"
114,65,46,21,3,8,114,"fuzhou","2015-05-24"
68,64,29,11,4,4,68,"lanzhou","2015-05-24"
171,74,61,29,17,18,171,"guangzhou","2015-05-24"
114,55,29,16,10,11,114,"guiyang","2015-05-24"
57,37,3,1,6,30,57,"haikou","2015-05-24"
167,106,6,68,50,10,167,"shijiazhuang","2015-05-24"
82,62,34,7,4,4,82,"haerbin","2015-05-24"
156,76,86,12,7,16,156,"zhengzhou","2015-05-24"
181,104,43,40,15,14,181,"wuhan","2015-05-24"
199,98,36,4,10,11,199,"changsha","2015-05-24"
159,80,75,9,8,7,159,"nanjing","2015-05-24"
186,60,26,33,18,26,186,"nanchang","2015-05-24"
134,67,58,30,8,11,134,"changchun","2015-05-24"
160,87,63,21,12,11,160,"shenyang","2015-05-24"
112,54,49,10,9,11,112,"xining","2015-05-24"
129,76,55,8,58,16,129,"xian","2015-05-24"
182,118,87,12,7,10,182,"jinan","2015-05-24"
169,108,35,50,22,22,169,"taiyuan","2015-05-24"
152,59,33,25,9,9,152,"chengdu","2015-05-24"
74,50,7,5,8,22,74,"kunming","2015-05-24"
114,52,80,11,11,5,114,"hangzhou","2015-05-24"
80,34,20,9,3,10,80,"nanning","2015-05-24"
155,71,46,32,6,8,155,"huhehaote","2015-05-24"
107,54,7,12,2,18,107,"yinchuan","2015-05-24"
93,47,15,7,10,12,93,"lhasa","2015-05-24"
68,36,47,6,6,12,68,"wulumuqi","2015-05-24"
169,111,104,13,23,12,169,"beijing","2015-05-24"
91,42,6,22,6,11,91,"chongqing","2015-05-24"
88,42,14,35,6,7,88,"hongkong","2015-05-24"
82,54,34,13,8,7,82,"zhuhai","2015-05-24"
97,103,63,8,6,8,103,"shanghai","2015-05-24"
152,56,74,8,9,21,152,"tianjin","2015-05-24"
156,73,34,13,7,9,156,"xiamen","2015-05-24"
97,56,53,22,13,35,97,"shenzhen","2015-05-24"
53,37,62,8,7,6,62,"dalian","2015-05-24"
117,71,39,10,13,5,117,"qingdao","2015-05-24"
76,36,58,10,12,7,76,"ningbo","2015-05-24"
