"PM2.5","PM10","O3","NO2","SO2","CO","AQI","City","Date"
87,87,16,16,8,4,87,"hefei",2015-06-11
50,34,56,18,2,6,56,"fuzhou",2015-06-11
139,101,22,27,13,9,139,"lanzhou",2015-06-11
149,44,7,33,11,8,149,"guangzhou",2015-06-11
147,75,20,27,9,7,147,"guiyang",2015-06-11
42,26,10,6,1,5,42,"haikou",2015-06-11
80,42,23,4,3,4,80,"shijiazhuang",2015-06-11
76,33,30,7,3,4,76,"haerbin",2015-06-11
152,107,33,29,16,9,152,"zhengzhou",2015-06-11
154,120,41,30,18,7,154,"wuhan",2015-06-11
119,67,11,6,20,4,119,"changsha",2015-06-11
137,105,34,22,18,11,137,"nanjing",2015-06-11
112,63,9,14,36,11,112,"nanchang",2015-06-11
76,21,40,6,3,6,76,"changchun",2015-06-11
152,66,37,12,1,8,152,"shenyang",2015-06-11
151,88,13,20,49,10,151,"xining",2015-06-11
104,106,13,20,20,16,106,"xian",2015-06-11
157,70,46,19,17,6,157,"jinan",2015-06-11
144,94,5,29,39,22,144,"taiyuan",2015-06-11
129,83,19,33,19,8,129,"chengdu",2015-06-11
78,29,30,6,6,7,78,"kunming",2015-06-11
127,65,43,16,5,7,127,"hangzhou",2015-06-11
87,34,9,10,3,6,87,"nanning",2015-06-11
21,27,31,4,2,5,31,"huhehaote",2015-06-11
119,61,6,26,6,10,119,"yinchuan",2015-06-11
13,4,25,6,6,6,25,"lhasa",2015-06-11
134,167,10,26,2,9,167,"wulumuqi",2015-06-11
30,16,35,8,2,4,35,"beijing",2015-06-11
124,72,5,26,10,11,124,"chongqing",2015-06-11
75,34,3,33,9,5,75,"hongkong",2015-06-11
57,55,21,11,3,10,57,"zhuhai",2015-06-11
122,85,37,26,8,9,122,"shanghai",2015-06-11
87,30,39,7,4,14,87,"tianjin",2015-06-11
132,58,24,11,12,6,132,"xiamen",2015-06-11
70,66,34,20,7,11,70,"shenzhen",2015-06-11
68,44,41,12,14,7,68,"dalian",2015-06-11
85,64,47,28,15,5,85,"qingdao",2015-06-11
97,62,25,21,6,10,97,"ningbo",2015-06-11
