"PM2.5","PM10","O3","NO2","SO2","CO","AQI","City","Date"
170,125,40,3,20,17,170,"hefei","2015-05-25"
78,51,30,30,2,8,78,"fuzhou","2015-05-25"
89,83,21,18,14,13,89,"lanzhou","2015-05-25"
55,51,11,20,7,9,55,"guangzhou","2015-05-25"
122,61,21,14,6,9,122,"guiyang","2015-05-25"
57,30,19,1,1,5,57,"haikou","2015-05-25"
243,148,4,44,54,8,243,"shijiazhuang","2015-05-25"
57,51,31,7,6,3,57,"haerbin","2015-05-25"
200,189,21,49,13,14,200,"zhengzhou","2015-05-25"
165,67,44,15,5,17,165,"wuhan","2015-05-25"
227,98,22,4,16,7,227,"changsha","2015-05-25"
104,64,45,15,10,5,104,"nanjing","2015-05-25"
192,114,68,15,31,12,192,"nanchang","2015-05-25"
167,98,19,41,10,8,167,"changchun","2015-05-25"
162,88,51,22,6,9,162,"shenyang","2015-05-25"
158,90,14,19,16,11,158,"xining","2015-05-25"
99,42,47,8,16,17,99,"xian","2015-05-25"
171,124,78,20,44,14,171,"jinan","2015-05-25"
158,88,8,24,29,21,158,"taiyuan","2015-05-25"
169,67,8,33,13,11,169,"chengdu","2015-05-25"
91,63,42,8,5,9,91,"kunming","2015-05-25"
164,79,64,19,18,10,164,"hangzhou","2015-05-25"
57,26,33,2,3,7,57,"nanning","2015-05-25"
91,75,6,40,6,7,91,"huhehaote","2015-05-25"
99,40,27,5,2,2,99,"yinchuan","2015-05-25"
46,11,55,7,3,6,55,"lhasa","2015-05-25"
57,54,31,21,6,7,57,"wulumuqi","2015-05-25"
178,101,77,19,30,9,178,"beijing","2015-05-25"
93,45,4,20,4,9,93,"chongqing","2015-05-25"
46,18,5,53,2,5,53,"hongkong","2015-05-25"
59,23,21,5,2,4,59,"zhuhai","2015-05-25"
114,46,44,18,6,5,114,"shanghai","2015-05-25"
161,70,64,10,10,15,161,"tianjin","2015-05-25"
154,59,22,24,4,8,154,"xiamen","2015-05-25"
68,30,28,33,7,20,68,"shenzhen","2015-05-25"
87,63,63,9,7,6,87,"dalian","2015-05-25"
30,47,42,7,18,4,47,"qingdao","2015-05-25"
65,37,59,11,6,6,65,"ningbo","2015-05-25"
