"PM2.5","PM10","O3","NO2","SO2","CO","AQI","City","Date"
144,75,41,17,17,10,144,"hefei",2015-06-08
107,60,56,25,7,6,107,"fuzhou",2015-06-08
142,84,40,21,27,11,142,"lanzhou",2015-06-08
68,25,23,8,3,4,68,"guangzhou",2015-06-08
114,60,25,20,10,8,114,"guiyang",2015-06-08
42,12,12,1,1,4,42,"haikou",2015-06-08
171,116,67,19,46,8,171,"shijiazhuang",2015-06-08
50,61,37,9,7,3,61,"haerbin",2015-06-08
381,200,51,34,14,10,381,"zhengzhou",2015-06-08
153,84,27,17,8,8,153,"wuhan",2015-06-08
80,48,13,7,12,5,80,"changsha",2015-06-08
117,69,31,11,7,10,117,"nanjing",2015-06-08
97,42,11,27,7,9,97,"nanchang",2015-06-08
68,37,20,27,6,7,68,"changchun",2015-06-08
167,86,35,23,7,9,167,"shenyang",2015-06-08
163,104,17,22,41,14,163,"xining",2015-06-08
151,113,41,24,15,18,151,"xian",2015-06-08
147,87,47,14,21,8,147,"jinan",2015-06-08
153,94,34,15,51,24,153,"taiyuan",2015-06-08
102,47,25,28,9,10,102,"chengdu",2015-06-08
70,40,12,15,3,8,70,"kunming",2015-06-08
74,27,42,20,4,6,74,"hangzhou",2015-06-08
132,59,6,13,3,5,132,"nanning",2015-06-08
95,75,8,28,5,5,95,"huhehaote",2015-06-08
87,52,17,12,18,9,87,"yinchuan",2015-06-08
46,11,49,4,7,4,49,"lhasa",2015-06-08
117,58,24,24,2,15,117,"wulumuqi",2015-06-08
155,84,54,17,20,9,155,"beijing",2015-06-08
68,53,11,15,12,10,68,"chongqing",2015-06-08
45,21,3,39,11,4,45,"hongkong",2015-06-08
42,28,15,5,3,4,42,"zhuhai",2015-06-08
151,72,42,26,6,8,151,"shanghai",2015-06-08
153,69,45,6,23,15,153,"tianjin",2015-06-08
112,52,28,7,4,4,112,"xiamen",2015-06-08
53,59,33,18,6,8,59,"shenzhen",2015-06-08
99,52,46,14,5,9,99,"dalian",2015-06-08
78,44,49,8,5,7,78,"qingdao",2015-06-08
112,47,51,28,6,8,112,"ningbo",2015-06-08
